%YAML 1.1
%TAG !u! tag:unity3d.com,2011:
--- !u!114 &11400000
MonoBehaviour:
  m_ObjectHideFlags: 0
  m_CorrespondingSourceObject: {fileID: 0}
  m_PrefabInstance: {fileID: 0}
  m_PrefabAsset: {fileID: 0}
  m_GameObject: {fileID: 0}
  m_Enabled: 1
  m_EditorHideFlags: 0
  m_Script: {fileID: 11500000, guid: 58374ba9d676ca246a7102ac486a1e3d, type: 3}
  m_Name: InvisibleWall
  m_EditorClassIdentifier: 
  m_Cells:
  - m_Tile: {fileID: 0}
    m_Matrix:
      e00: 1
      e01: 0
      e02: 0
      e03: 0
      e10: 0
      e11: 1
      e12: 0
      e13: 0
      e20: 0
      e21: 0
      e22: 1
      e23: 0
      e30: 0
      e31: 0
      e32: 0
      e33: 1
    m_Color: {r: 1, g: 1, b: 1, a: 1}
  m_Size: {x: 1, y: 1, z: 1}
  m_Pivot: {x: 0, y: 0, z: 0}
  m_CanChangeZPosition: 0
  m_FloodFillContiguousOnly: 1
  _layer: 3
  m_Prefab: {fileID: 5246923105572737055, guid: 4f1473c04dee8694a87769fd864504a7, type: 3}
  m_EraseAnyObjects: 1
