%YAML 1.1
%TAG !u! tag:unity3d.com,2011:
--- !u!114 &11400000
MonoBehaviour:
  m_ObjectHideFlags: 0
  m_CorrespondingSourceObject: {fileID: 0}
  m_PrefabInstance: {fileID: 0}
  m_PrefabAsset: {fileID: 0}
  m_GameObject: {fileID: 0}
  m_Enabled: 1
  m_EditorHideFlags: 0
  m_Script: {fileID: 11500000, guid: 026ca4e9c10275c4aa1a2cc2952f0402, type: 3}
  m_Name: GameplayManagerSO
  m_EditorClassIdentifier: 
  _playerData: {fileID: 11400000, guid: c7665cf006c863443914daf2e9fde56b, type: 2}
