%YAML 1.1
%TAG !u! tag:unity3d.com,2011:
--- !u!114 &2984101158973884591
MonoBehaviour:
  m_ObjectHideFlags: 0
  m_CorrespondingSourceObject: {fileID: 0}
  m_PrefabInstance: {fileID: 0}
  m_PrefabAsset: {fileID: 0}
  m_GameObject: {fileID: 365695838296964269}
  m_Enabled: 1
  m_EditorHideFlags: 0
  m_Script: {fileID: 11500000, guid: 3176438b96e5fb849b228062fa2fa8d5, type: 3}
  m_Name: 
  m_EditorClassIdentifier: 
  _healthBar: {fileID: 0}
  _delayBar: {fileID: 0}
  _burstDelay: 2
  _healthSpeed: 50
  _burstSpeed: 50
--- !u!1001 &1094238286702883839
PrefabInstance:
  m_ObjectHideFlags: 0
  serializedVersion: 2
  m_Modification:
    m_TransformParent: {fileID: 0}
    m_Modifications:
    - target: {fileID: 737664008380344695, guid: 6d5c652f5d474a242977c9fc84cec21c, type: 3}
      propertyPath: m_Color.b
      value: 0
      objectReference: {fileID: 0}
    - target: {fileID: 737664008380344695, guid: 6d5c652f5d474a242977c9fc84cec21c, type: 3}
      propertyPath: m_Color.g
      value: 0.016666668
      objectReference: {fileID: 0}
    - target: {fileID: 737664008380344695, guid: 6d5c652f5d474a242977c9fc84cec21c, type: 3}
      propertyPath: m_Color.r
      value: 1
      objectReference: {fileID: 0}
    - target: {fileID: 737664008714833745, guid: 6d5c652f5d474a242977c9fc84cec21c, type: 3}
      propertyPath: m_Pivot.x
      value: 0.5
      objectReference: {fileID: 0}
    - target: {fileID: 737664008714833745, guid: 6d5c652f5d474a242977c9fc84cec21c, type: 3}
      propertyPath: m_Pivot.y
      value: 0.5
      objectReference: {fileID: 0}
    - target: {fileID: 737664008714833745, guid: 6d5c652f5d474a242977c9fc84cec21c, type: 3}
      propertyPath: m_RootOrder
      value: 0
      objectReference: {fileID: 0}
    - target: {fileID: 737664008714833745, guid: 6d5c652f5d474a242977c9fc84cec21c, type: 3}
      propertyPath: m_AnchorMax.x
      value: 0.5
      objectReference: {fileID: 0}
    - target: {fileID: 737664008714833745, guid: 6d5c652f5d474a242977c9fc84cec21c, type: 3}
      propertyPath: m_AnchorMax.y
      value: 0.5
      objectReference: {fileID: 0}
    - target: {fileID: 737664008714833745, guid: 6d5c652f5d474a242977c9fc84cec21c, type: 3}
      propertyPath: m_AnchorMin.x
      value: 0.5
      objectReference: {fileID: 0}
    - target: {fileID: 737664008714833745, guid: 6d5c652f5d474a242977c9fc84cec21c, type: 3}
      propertyPath: m_AnchorMin.y
      value: 0.5
      objectReference: {fileID: 0}
    - target: {fileID: 737664008714833745, guid: 6d5c652f5d474a242977c9fc84cec21c, type: 3}
      propertyPath: m_SizeDelta.x
      value: 150
      objectReference: {fileID: 0}
    - target: {fileID: 737664008714833745, guid: 6d5c652f5d474a242977c9fc84cec21c, type: 3}
      propertyPath: m_SizeDelta.y
      value: 10
      objectReference: {fileID: 0}
    - target: {fileID: 737664008714833745, guid: 6d5c652f5d474a242977c9fc84cec21c, type: 3}
      propertyPath: m_LocalPosition.x
      value: 0
      objectReference: {fileID: 0}
    - target: {fileID: 737664008714833745, guid: 6d5c652f5d474a242977c9fc84cec21c, type: 3}
      propertyPath: m_LocalPosition.y
      value: 0
      objectReference: {fileID: 0}
    - target: {fileID: 737664008714833745, guid: 6d5c652f5d474a242977c9fc84cec21c, type: 3}
      propertyPath: m_LocalPosition.z
      value: 0
      objectReference: {fileID: 0}
    - target: {fileID: 737664008714833745, guid: 6d5c652f5d474a242977c9fc84cec21c, type: 3}
      propertyPath: m_LocalRotation.w
      value: 1
      objectReference: {fileID: 0}
    - target: {fileID: 737664008714833745, guid: 6d5c652f5d474a242977c9fc84cec21c, type: 3}
      propertyPath: m_LocalRotation.x
      value: 0
      objectReference: {fileID: 0}
    - target: {fileID: 737664008714833745, guid: 6d5c652f5d474a242977c9fc84cec21c, type: 3}
      propertyPath: m_LocalRotation.y
      value: 0
      objectReference: {fileID: 0}
    - target: {fileID: 737664008714833745, guid: 6d5c652f5d474a242977c9fc84cec21c, type: 3}
      propertyPath: m_LocalRotation.z
      value: 0
      objectReference: {fileID: 0}
    - target: {fileID: 737664008714833745, guid: 6d5c652f5d474a242977c9fc84cec21c, type: 3}
      propertyPath: m_AnchoredPosition.x
      value: 0
      objectReference: {fileID: 0}
    - target: {fileID: 737664008714833745, guid: 6d5c652f5d474a242977c9fc84cec21c, type: 3}
      propertyPath: m_AnchoredPosition.y
      value: 0
      objectReference: {fileID: 0}
    - target: {fileID: 737664008714833745, guid: 6d5c652f5d474a242977c9fc84cec21c, type: 3}
      propertyPath: m_LocalEulerAnglesHint.x
      value: 0
      objectReference: {fileID: 0}
    - target: {fileID: 737664008714833745, guid: 6d5c652f5d474a242977c9fc84cec21c, type: 3}
      propertyPath: m_LocalEulerAnglesHint.y
      value: 0
      objectReference: {fileID: 0}
    - target: {fileID: 737664008714833745, guid: 6d5c652f5d474a242977c9fc84cec21c, type: 3}
      propertyPath: m_LocalEulerAnglesHint.z
      value: 0
      objectReference: {fileID: 0}
    - target: {fileID: 737664008714833746, guid: 6d5c652f5d474a242977c9fc84cec21c, type: 3}
      propertyPath: m_Name
      value: NpcHpBar Variant
      objectReference: {fileID: 0}
    - target: {fileID: 1805382208039451478, guid: 6d5c652f5d474a242977c9fc84cec21c, type: 3}
      propertyPath: m_IsActive
      value: 0
      objectReference: {fileID: 0}
    m_RemovedComponents: []
  m_SourcePrefab: {fileID: 100100000, guid: 6d5c652f5d474a242977c9fc84cec21c, type: 3}
--- !u!1 &365695838296964269 stripped
GameObject:
  m_CorrespondingSourceObject: {fileID: 737664008714833746, guid: 6d5c652f5d474a242977c9fc84cec21c, type: 3}
  m_PrefabInstance: {fileID: 1094238286702883839}
  m_PrefabAsset: {fileID: 0}
