%YAML 1.1
%TAG !u! tag:unity3d.com,2011:
--- !u!1 &8487122158240099458
GameObject:
  m_ObjectHideFlags: 0
  m_CorrespondingSourceObject: {fileID: 0}
  m_PrefabInstance: {fileID: 0}
  m_PrefabAsset: {fileID: 0}
  serializedVersion: 6
  m_Component:
  - component: {fileID: 2457901942075477640}
  - component: {fileID: 7578842758492082797}
  m_Layer: 0
  m_Name: Pot4
  m_TagString: Untagged
  m_Icon: {fileID: 0}
  m_NavMeshLayer: 0
  m_StaticEditorFlags: 0
  m_IsActive: 1
--- !u!4 &2457901942075477640
Transform:
  m_ObjectHideFlags: 0
  m_CorrespondingSourceObject: {fileID: 0}
  m_PrefabInstance: {fileID: 0}
  m_PrefabAsset: {fileID: 0}
  m_GameObject: {fileID: 8487122158240099458}
  m_LocalRotation: {x: 0, y: 0, z: 0, w: 1}
  m_LocalPosition: {x: 0, y: 0, z: 0}
  m_LocalScale: {x: 1, y: 1, z: 1}
  m_Children:
  - {fileID: 9145289552965573893}
  m_Father: {fileID: 0}
  m_RootOrder: 0
  m_LocalEulerAnglesHint: {x: 0, y: 0, z: 0}
--- !u!65 &7578842758492082797
BoxCollider:
  m_ObjectHideFlags: 0
  m_CorrespondingSourceObject: {fileID: 0}
  m_PrefabInstance: {fileID: 0}
  m_PrefabAsset: {fileID: 0}
  m_GameObject: {fileID: 8487122158240099458}
  m_Material: {fileID: 0}
  m_IsTrigger: 0
  m_Enabled: 1
  serializedVersion: 2
  m_Size: {x: 0.63370967, y: 1.1320637, z: 0.47922018}
  m_Center: {x: -0.0012458563, y: 0.56438595, z: 0.0012459904}
--- !u!1001 &8746026865365875438
PrefabInstance:
  m_ObjectHideFlags: 0
  serializedVersion: 2
  m_Modification:
    m_TransformParent: {fileID: 2457901942075477640}
    m_Modifications:
    - target: {fileID: -8679921383154817045, guid: c5f15dd62c9eca047ae52cff0ce39dc5, type: 3}
      propertyPath: m_RootOrder
      value: 0
      objectReference: {fileID: 0}
    - target: {fileID: -8679921383154817045, guid: c5f15dd62c9eca047ae52cff0ce39dc5, type: 3}
      propertyPath: m_LocalScale.y
      value: 0.99999964
      objectReference: {fileID: 0}
    - target: {fileID: -8679921383154817045, guid: c5f15dd62c9eca047ae52cff0ce39dc5, type: 3}
      propertyPath: m_LocalScale.z
      value: 0.99999964
      objectReference: {fileID: 0}
    - target: {fileID: -8679921383154817045, guid: c5f15dd62c9eca047ae52cff0ce39dc5, type: 3}
      propertyPath: m_LocalPosition.x
      value: 0
      objectReference: {fileID: 0}
    - target: {fileID: -8679921383154817045, guid: c5f15dd62c9eca047ae52cff0ce39dc5, type: 3}
      propertyPath: m_LocalPosition.y
      value: 0
      objectReference: {fileID: 0}
    - target: {fileID: -8679921383154817045, guid: c5f15dd62c9eca047ae52cff0ce39dc5, type: 3}
      propertyPath: m_LocalPosition.z
      value: 0
      objectReference: {fileID: 0}
    - target: {fileID: -8679921383154817045, guid: c5f15dd62c9eca047ae52cff0ce39dc5, type: 3}
      propertyPath: m_LocalRotation.w
      value: 0.7071067
      objectReference: {fileID: 0}
    - target: {fileID: -8679921383154817045, guid: c5f15dd62c9eca047ae52cff0ce39dc5, type: 3}
      propertyPath: m_LocalRotation.x
      value: -0.7071068
      objectReference: {fileID: 0}
    - target: {fileID: -8679921383154817045, guid: c5f15dd62c9eca047ae52cff0ce39dc5, type: 3}
      propertyPath: m_LocalRotation.y
      value: -0
      objectReference: {fileID: 0}
    - target: {fileID: -8679921383154817045, guid: c5f15dd62c9eca047ae52cff0ce39dc5, type: 3}
      propertyPath: m_LocalRotation.z
      value: -0
      objectReference: {fileID: 0}
    - target: {fileID: -8679921383154817045, guid: c5f15dd62c9eca047ae52cff0ce39dc5, type: 3}
      propertyPath: m_LocalEulerAnglesHint.x
      value: 0
      objectReference: {fileID: 0}
    - target: {fileID: -8679921383154817045, guid: c5f15dd62c9eca047ae52cff0ce39dc5, type: 3}
      propertyPath: m_LocalEulerAnglesHint.y
      value: 0
      objectReference: {fileID: 0}
    - target: {fileID: -8679921383154817045, guid: c5f15dd62c9eca047ae52cff0ce39dc5, type: 3}
      propertyPath: m_LocalEulerAnglesHint.z
      value: 0
      objectReference: {fileID: 0}
    - target: {fileID: -7511558181221131132, guid: c5f15dd62c9eca047ae52cff0ce39dc5, type: 3}
      propertyPath: m_Materials.Array.data[0]
      value: 
      objectReference: {fileID: 2100000, guid: 5102788bdd902af499774d01e614511a, type: 2}
    - target: {fileID: 919132149155446097, guid: c5f15dd62c9eca047ae52cff0ce39dc5, type: 3}
      propertyPath: m_Name
      value: m_Pot4
      objectReference: {fileID: 0}
    - target: {fileID: 919132149155446097, guid: c5f15dd62c9eca047ae52cff0ce39dc5, type: 3}
      propertyPath: m_IsActive
      value: 1
      objectReference: {fileID: 0}
    m_RemovedComponents: []
  m_SourcePrefab: {fileID: 100100000, guid: c5f15dd62c9eca047ae52cff0ce39dc5, type: 3}
--- !u!4 &9145289552965573893 stripped
Transform:
  m_CorrespondingSourceObject: {fileID: -8679921383154817045, guid: c5f15dd62c9eca047ae52cff0ce39dc5, type: 3}
  m_PrefabInstance: {fileID: 8746026865365875438}
  m_PrefabAsset: {fileID: 0}
